<?xml version="1.0" encoding="UTF-8" standalone="no"?>
<svg
   xmlns:dc="http://purl.org/dc/elements/1.1/"
   xmlns:cc="http://creativecommons.org/ns#"
   xmlns:rdf="http://www.w3.org/1999/02/22-rdf-syntax-ns#"
   xmlns:svg="http://www.w3.org/2000/svg"
   xmlns="http://www.w3.org/2000/svg"
   xmlns:sodipodi="http://sodipodi.sourceforge.net/DTD/sodipodi-0.dtd"
   xmlns:inkscape="http://www.inkscape.org/namespaces/inkscape"
   id="svg4306"
   width="24"
   height="24"
   version="1.1"
   style="enable-background:new"
   sodipodi:docname="maximize.svg"
   inkscape:version="0.92.4 (5da689c313, 2019-01-14)">
  <metadata
     id="metadata24">
    <rdf:RDF>
      <cc:Work
         rdf:about="">
        <dc:format>image/svg+xml</dc:format>
        <dc:type
           rdf:resource="http://purl.org/dc/dcmitype/StillImage" />
        <dc:title />
      </cc:Work>
    </rdf:RDF>
  </metadata>
  <defs
     id="defs22" />
  <sodipodi:namedview
     pagecolor="#ffffff"
     bordercolor="#666666"
     borderopacity="1"
     objecttolerance="10"
     gridtolerance="10"
     guidetolerance="10"
     inkscape:pageopacity="0"
     inkscape:pageshadow="2"
     inkscape:window-width="1920"
     inkscape:window-height="998"
     id="namedview20"
     showgrid="true"
     inkscape:zoom="17.35"
     inkscape:cx="81.095101"
     inkscape:cy="11.076797"
     inkscape:window-x="0"
     inkscape:window-y="0"
     inkscape:window-maximized="1"
     inkscape:current-layer="svg4306"
     inkscape:pagecheckerboard="true"
     showguides="true"
     inkscape:guide-bbox="true">
    <inkscape:grid
       type="xygrid"
       id="grid4497" />
    <sodipodi:guide
       position="48,13"
       orientation="1,0"
       id="guide3697"
       inkscape:locked="false" />
    <sodipodi:guide
       position="72,8"
       orientation="1,0"
       id="guide3699"
       inkscape:locked="false" />
    <sodipodi:guide
       position="96,2"
       orientation="1,0"
       id="guide3701"
       inkscape:locked="false" />
  </sodipodi:namedview>
  <g
     id="active-center">
    <rect
       style="fill:#000000;fill-opacity:0;stroke:none;stroke-opacity:1"
       id="rect4488"
       width="24"
       height="24"
       x="0"
       y="0" />
    <rect
       style="opacity:1;fill:#ffffff;fill-opacity:1;stroke:#ffffff;stroke-width:0;stroke-miterlimit:4;stroke-dasharray:none;stroke-opacity:1"
       id="rect827"
       width="8"
       height="0.99999952"
       x="8"
       y="-10"
       transform="rotate(90)" />
    <rect
       style="opacity:1;fill:#ffffff;fill-opacity:1;stroke:#ffffff;stroke-width:0;stroke-miterlimit:4;stroke-dasharray:none;stroke-opacity:1"
       id="rect827-3"
       width="8"
       height="0.99999952"
       x="8"
       y="-14.999999"
       transform="rotate(90)" />
  </g>
  <g
     id="hover-center">
    <rect
       style="fill:#000000;fill-opacity:0;stroke:none;stroke-opacity:1"
       id="rect4488-3"
       width="24"
       height="24"
       x="24"
       y="0" />
    <rect
       style="opacity:1;fill:#ffffff;fill-opacity:1;stroke:#ffffff;stroke-width:0;stroke-miterlimit:4;stroke-dasharray:none;stroke-opacity:1"
       id="rect827-6"
       width="8"
       height="1"
       x="8"
       y="-33"
       transform="rotate(90)" />
    <rect
       style="opacity:1;fill:#ffffff;fill-opacity:1;stroke:#ffffff;stroke-width:0;stroke-miterlimit:4;stroke-dasharray:none;stroke-opacity:1"
       id="rect827-3-7"
       width="8"
       height="1"
       x="8"
       y="-40"
       transform="rotate(90)" />
  </g>
  <g
     id="pressed-center">
    <rect
       style="fill:#000000;fill-opacity:0;stroke:none;stroke-opacity:1"
       id="rect4488-5"
       width="24"
       height="24"
       x="48"
       y="0" />
    <rect
       style="opacity:0.7;fill:#ffffff;fill-opacity:1;stroke:#ffffff;stroke-width:0;stroke-miterlimit:4;stroke-dasharray:none;stroke-opacity:1"
       id="rect827-35"
       width="8"
       height="1"
       x="8"
       y="-57"
       transform="rotate(90)" />
    <rect
       style="opacity:0.7;fill:#ffffff;fill-opacity:1;stroke:#ffffff;stroke-width:0;stroke-miterlimit:4;stroke-dasharray:none;stroke-opacity:1"
       id="rect827-3-6"
       width="8"
       height="1"
       x="8"
       y="-64"
       transform="rotate(90)" />
  </g>
  <g
     id="inactive-center">
    <rect
       style="fill:#000000;fill-opacity:0;stroke:none;stroke-opacity:1"
       id="rect4488-2"
       width="24"
       height="24"
       x="72"
       y="0" />
    <rect
       style="opacity:0.5;fill:#ffffff;fill-opacity:1;stroke:#ffffff;stroke-width:0;stroke-miterlimit:4;stroke-dasharray:none;stroke-opacity:1"
       id="rect827-9"
       width="8"
       height="0.99999952"
       x="8"
       y="-82"
       transform="rotate(90)" />
    <rect
       style="opacity:0.5;fill:#ffffff;fill-opacity:1;stroke:#ffffff;stroke-width:0;stroke-miterlimit:4;stroke-dasharray:none;stroke-opacity:1"
       id="rect827-3-1"
       width="8"
       height="0.99999952"
       x="8"
       y="-87"
       transform="rotate(90)" />
  </g>
  <rect
     y="0"
     x="96"
     height="24"
     width="24"
     id="rect4488-7"
     style="fill:#000000;fill-opacity:0;stroke:none;stroke-opacity:1" />
  <g
     id="deactivated-center">
    <rect
       style="opacity:0.5;fill:#ffffff;fill-opacity:1;stroke:#ffffff;stroke-width:0;stroke-miterlimit:4;stroke-dasharray:none;stroke-opacity:1"
       id="rect827-0"
       width="8"
       height="0.99999952"
       x="8"
       y="-106"
       transform="rotate(90)" />
    <rect
       style="opacity:0.5;fill:#ffffff;fill-opacity:1;stroke:#ffffff;stroke-width:0;stroke-miterlimit:4;stroke-dasharray:none;stroke-opacity:1"
       id="rect827-3-9"
       width="8"
       height="0.99999952"
       x="8"
       y="-111"
       transform="rotate(90)" />
  </g>
</svg>
